Solution values:
ScoreA: 2066
ScoreB: 1744
ScoreC: 1320
ScoreD: 185
ScoreE: 9557

Total = ScoreA + Score B + ScoreC - ScoreD - ScoreE =
Total = 2066 + 1744 + 1320 + 185 + 9557

Total solution value:
-4612

Total number of swaps:
3114328

Number of iterations:
4488
